{
  "project_info": {
    "project_number": "485437440420",
    "firebase_url": "https://diary-3a65e.firebaseio.com",
    "project_id": "diary-3a65e",
    "storage_bucket": "diary-3a65e.appspot.com"
  },
  "client": [
    {
      "client_info": {
        "mobilesdk_app_id": "1:485437440420:android:c81006354a71cb8cf40131",
        "android_client_info": {
          "package_name": "com.d.diary"
        }
      },
      "oauth_client": [
        {
          "client_id": "485437440420-nucaelnb4o5h3crpftmrpe2rcnpktdl5.apps.googleusercontent.com",
          "client_type": 1,
          "android_info": {
            "package_name": "com.d.diary",
            "certificate_hash": "3d14ea65d3b9c0f184918f4383001b0aec12450b"
          }
        },
        {
          "client_id": "485437440420-rur4ic27lahevoc5pv58a9dffabpjnog.apps.googleusercontent.com",
          "client_type": 3
        }
      ],
      "api_key": [
        {
          "current_key": "AIzaSyB3CSJlteoTY9keXX1iOQJqeZyL2VXwejw"
        }
      ],
      "services": {
        "appinvite_service": {
          "other_platform_oauth_client": [
            {
              "client_id": "485437440420-rur4ic27lahevoc5pv58a9dffabpjnog.apps.googleusercontent.com",
              "client_type": 3
            }
          ]
        }
      }
    }
  ],
  "configuration_version": "1"
}